POPA	POPB	Vst	CI_low	CI_upp	1	2	3	4	5	6	7	8	9	10	11	12	13	14	15	16	17	18	19	20	21	22	23	24	25	26	27	28	29	30	31	32	33	34	35	36	37	38	39	40	41	42	43	44	45	46	47	48	49	50	51	52	53	54	55	56	57	58	59	60	61	62	63	64	65	66	67	68	69	70	71	72	73	74	75	76	77	78	79	80	81	82	83	84	85	86	87	88	89	90	91	92	93	94	95	96	97	98	99	100
pop1	pop2	0.237081116253441	0.235365610114296	0.238454321267291	0.239561351701669	0.233357854594079	0.231625864126541	0.239864832996936	0.242064981772683	0.231562258198811	0.239860737788611	0.244139977901651	0.241855234530958	0.215816573024998	0.228528168581084	0.244368162028994	0.233828018236845	0.240809329053652	0.237455702946289	0.233006163473419	0.235964301049031	0.24327859411588	0.234897807937319	0.240956867209452	0.226892042224733	0.24345867127354	0.23944065983608	0.237388323014461	0.241074694112491	0.250759430651333	0.246959218260791	0.238482045986758	0.231920832282282	0.246072817835986	0.230764252161455	0.23528684405025	0.221039690315258	0.234818358720111	0.232321869248625	0.24081452059073	0.229634468482977	0.229443542533325	0.233901286434701	0.24060006946747	0.244221931911291	0.228499678456343	0.230927121963566	0.240788933668464	0.226202981811414	0.234160230481767	0.244891464027849	0.245584497778221	0.226850075808878	0.221517075685718	0.249565181822172	0.235385587433889	0.237857197773364	0.236533681549922	0.233762174878781	0.226483142353648	0.243513972209463	0.244508548158324	0.240842256208805	0.237656984924438	0.232180066197271	0.235676593476327	0.231499663152613	0.22981067277624	0.243013950839019	0.237503517875594	0.240520387763792	0.220378899955315	0.237913347730049	0.24521175649988	0.251149306099291	0.227099351459046	0.221907499755572	0.239077223841378	0.238029689636054	0.243305041048107	0.223325358253833	0.247893869269089	0.251010362178261	0.240841645592272	0.242296602638061	0.235195059154473	0.23058088671359	0.230058489005331	0.229396508538437	0.232157613807602	0.241903676647286	0.236283490201658	0.233019947826522	0.232378662090501	0.234783003195144	0.229748144253696	0.257634705812252	0.25680498317256	0.245105288081305	0.237733216616165	0.237557481840591	0.24708319829547	0.232696885337377	0.237601384793761
pop1	pop3	0.23300112804903	0.232726881607821	0.23506461549114	0.226292807389303	0.230189067171536	0.236224120183057	0.230803682876891	0.237159343617046	0.231598882910145	0.229248253055492	0.233066929770412	0.231044855459442	0.244590193010089	0.229229724372922	0.240171896270584	0.232539846605039	0.22678689916938	0.245598692821239	0.231951212184364	0.234479814118224	0.231591908316364	0.244171845902932	0.230640502345938	0.227104815019604	0.22971890897024	0.243372507681772	0.240895920852565	0.24109781913315	0.234966216338487	0.246043176915632	0.22623466689285	0.239066168869999	0.222546297373479	0.22454454668508	0.233994255382258	0.23865393604993	0.227393500045825	0.235612228130569	0.227690936793945	0.221791366845169	0.233900047747315	0.23572350057853	0.240583377995042	0.22678631982439	0.233656108412127	0.229123485741	0.240241124921921	0.230803826354918	0.231057671369704	0.235742884659853	0.225167852839222	0.231225353052554	0.227218336826523	0.236380725814333	0.234771508544384	0.235554320965421	0.232183691401802	0.221268450252046	0.221246339605274	0.235497357229406	0.22264160488376	0.232925633328239	0.239120524258598	0.234244971427151	0.240126354201178	0.230172590988231	0.230582083485497	0.237818206278805	0.241119728394146	0.234214421474692	0.236671095832363	0.235605156689127	0.233407384953157	0.233399315626782	0.229963627976364	0.24123041318814	0.238640780788052	0.239718610453486	0.236789302116482	0.237005701956523	0.233009784027971	0.231675149470835	0.228925289899117	0.233356219113388	0.235231050981862	0.229330595992634	0.231928743669096	0.235074638357315	0.241326090738851	0.226447585344884	0.238456305969526	0.22443041644398	0.238380099203446	0.235774692490747	0.238591151658543	0.240110176678476	0.245612563400517	0.229806131698342	0.237747078634984	0.245736123391666	0.242963327816827	0.233716187010467	0.23030791498713
pop1	pop4	0.216167219743449	0.214332706265054	0.217428812280461	0.206421684564462	0.212547833757592	0.22051811236215	0.220025387340674	0.214541101980449	0.214054735130825	0.207708636048545	0.229799343505665	0.208318478444508	0.214251801331388	0.210780726058875	0.219628285908977	0.219404075443616	0.210516449704873	0.220783359683506	0.21685804274697	0.207270553606938	0.224820158235956	0.210495865907224	0.213685752916785	0.222469399329313	0.22141419314423	0.202922312263822	0.226245875560092	0.215329502911912	0.216587047661454	0.223392806058614	0.21695507485173	0.192786790953586	0.211914257431622	0.21335776982914	0.205584984879364	0.21931018799463	0.215401952598948	0.210084978927388	0.218221496680818	0.217906856562822	0.224619910674931	0.213747324848092	0.232756685666823	0.2051367340813	0.22311972554839	0.215323211480528	0.220006111985786	0.209155622705653	0.209418313564227	0.220291508373346	0.217234001057724	0.206714280931812	0.217054153754826	0.210550928448737	0.233808193222303	0.234965404184853	0.214896251795512	0.214395483837579	0.209261002920164	0.217005377193906	0.217519034574101	0.212272136693204	0.216742849164861	0.222773416511511	0.221063122928923	0.20523929289778	0.208485911406685	0.217717220066323	0.214059004592446	0.216650226917259	0.213592086284935	0.208841569650151	0.205171805265521	0.215374762155711	0.215454807020625	0.219573336856767	0.213793718000432	0.215047598933864	0.221653278825619	0.224772953100487	0.201330509845609	0.209523013165745	0.203988967226107	0.210966651018469	0.233034976281233	0.201739159093563	0.21878222835253	0.210629887679446	0.225936986002668	0.211499376467769	0.214599413796786	0.212967936934026	0.223930477211455	0.21728073338177	0.211412095701234	0.230234436649124	0.229066855661611	0.226626516304117	0.217577256506985	0.228609789149502	0.225788729461983	0.208983582231225	0.205992118709637
pop1	pop5	0.302755473499525	0.301320575196917	0.304449247274105	0.314349221161925	0.302182070748769	0.30906643698305	0.302391860168515	0.293752827237533	0.302675114397015	0.321822244251829	0.31334691712638	0.313305691563698	0.306134859073266	0.29963502497519	0.29484311516898	0.292457233552349	0.302430076307313	0.298654780071429	0.298424146485387	0.296391291133973	0.302081094480417	0.304745055715634	0.303415773413483	0.311588144179327	0.314788707207965	0.291521201821355	0.308630665032937	0.290650222879776	0.311174346536318	0.292897254813821	0.288126311082105	0.303901132377746	0.298757206357271	0.311237409048521	0.310454929646605	0.31367473395832	0.303941376063689	0.292572128049955	0.302301191536017	0.298382328084973	0.313989432606866	0.317580875143965	0.298452053148844	0.302104191338823	0.306483893795818	0.312180681762577	0.292793048203339	0.299532454786611	0.300877196886965	0.30180631157171	0.297137182418233	0.300255223804735	0.298561549612301	0.311964989835082	0.295576655461142	0.310528078163468	0.293101540074475	0.294831450966855	0.289933762616343	0.301837580716904	0.291086889586835	0.292519791499025	0.302168835819811	0.310667434462378	0.30256867297203	0.294086281491268	0.319249833843189	0.306755638342054	0.293415751412964	0.297611016276994	0.304309471425392	0.29838698867876	0.305031293907882	0.304894005501133	0.317213059601789	0.304653455037551	0.311147474685679	0.311169232446147	0.30464479721489	0.301932656067121	0.305046912534657	0.294050594877234	0.313574449493875	0.298900864111865	0.295304313190366	0.298909869559448	0.29514362468495	0.310024191759086	0.312739852271182	0.297702399726248	0.301155555627118	0.296530100364611	0.296877648896144	0.308730684230515	0.300503558948318	0.319256042149969	0.313597277415607	0.309483256486652	0.301674568345499	0.305122470813628	0.302328675967262	0.285584186201825	0.296505170014275
pop1	pop6	0.241999184621391	0.241084575707177	0.243561372655075	0.236753515450122	0.244770804713358	0.246885902793778	0.244958683815344	0.236986116184986	0.240691467179206	0.255633936059934	0.250971089476835	0.25064247137109	0.230839866465092	0.237739427320365	0.241257803955503	0.242259212205792	0.251242296842025	0.239551351459707	0.242859242252774	0.240975350686709	0.239318417532129	0.237174400986799	0.244550400769443	0.239551160662054	0.256656309085366	0.246567383983109	0.244212617261168	0.231410608240263	0.235735404771894	0.240680872490691	0.240308044924109	0.240685912968411	0.240991324718596	0.256325931611318	0.232748996557497	0.232925169241052	0.247916810313978	0.244195773756926	0.243732927623267	0.238694224758818	0.234611211610077	0.245092163339835	0.239056330531205	0.230347750078521	0.24343078738886	0.240220243469166	0.256564184510518	0.254102984768542	0.237744637514999	0.240857071042607	0.249902333262349	0.23471740620194	0.243205328530972	0.233238377323119	0.243708468062049	0.242304096213914	0.231633468973876	0.246354647986597	0.239787794022644	0.236456332259807	0.244949612836887	0.236222763961654	0.247056353057273	0.240399204490413	0.240788800632362	0.246251074184088	0.242089534210965	0.239003817734831	0.242287538486621	0.236588633194807	0.24504969886336	0.2311849783785	0.244985503204734	0.239055545684533	0.235378804182645	0.241151823273314	0.234991415292932	0.253993182400108	0.231372458946144	0.233104874503785	0.248649083283181	0.250479537770892	0.233429761992758	0.248006455008034	0.242839013193118	0.254005808810895	0.242431948178991	0.243702588081297	0.247200420067102	0.239782160843235	0.240869073445803	0.248883153824776	0.242864294191922	0.244573661386766	0.243856329471991	0.241243511453531	0.24296316924478	0.251207086657606	0.243383419631746	0.251146654864651	0.244049622454824	0.240593806914529	0.247494392239114
pop2	pop1	0.237081116253441	0.235365610114296	0.238454321267291	0.239561351701669	0.233357854594079	0.231625864126541	0.239864832996936	0.242064981772683	0.231562258198811	0.239860737788611	0.244139977901651	0.241855234530958	0.215816573024998	0.228528168581084	0.244368162028994	0.233828018236845	0.240809329053652	0.237455702946289	0.233006163473419	0.235964301049031	0.24327859411588	0.234897807937319	0.240956867209452	0.226892042224733	0.24345867127354	0.23944065983608	0.237388323014461	0.241074694112491	0.250759430651333	0.246959218260791	0.238482045986758	0.231920832282282	0.246072817835986	0.230764252161455	0.23528684405025	0.221039690315258	0.234818358720111	0.232321869248625	0.24081452059073	0.229634468482977	0.229443542533325	0.233901286434701	0.24060006946747	0.244221931911291	0.228499678456343	0.230927121963566	0.240788933668464	0.226202981811414	0.234160230481767	0.244891464027849	0.245584497778221	0.226850075808878	0.221517075685718	0.249565181822172	0.235385587433889	0.237857197773364	0.236533681549922	0.233762174878781	0.226483142353648	0.243513972209463	0.244508548158324	0.240842256208805	0.237656984924438	0.232180066197271	0.235676593476327	0.231499663152613	0.22981067277624	0.243013950839019	0.237503517875594	0.240520387763792	0.220378899955315	0.237913347730049	0.24521175649988	0.251149306099291	0.227099351459046	0.221907499755572	0.239077223841378	0.238029689636054	0.243305041048107	0.223325358253833	0.247893869269089	0.251010362178261	0.240841645592272	0.242296602638061	0.235195059154473	0.23058088671359	0.230058489005331	0.229396508538437	0.232157613807602	0.241903676647286	0.236283490201658	0.233019947826522	0.232378662090501	0.234783003195144	0.229748144253696	0.257634705812252	0.25680498317256	0.245105288081305	0.237733216616165	0.237557481840591	0.24708319829547	0.232696885337377	0.237601384793761
pop2	pop3	0.242434276650594	0.241768163426906	0.244641175015309	0.252198677966568	0.256450357765967	0.244610091517251	0.258976351023584	0.236707857126497	0.24156876891993	0.239825906525011	0.251874995753719	0.255714507978123	0.240211340453715	0.250225210421637	0.251981914863818	0.249745484270739	0.251894007410403	0.259547566389687	0.2411172532526	0.237268162767091	0.250422256436191	0.238923727585575	0.246018747568575	0.24353635348723	0.236937040996355	0.231350131072579	0.239454111326923	0.248186169704276	0.234184262743987	0.251365557877165	0.238433633983946	0.233191455408428	0.243450902085343	0.240109179994162	0.237965570043445	0.231195865618354	0.244472421343276	0.251735937775613	0.23935334451582	0.246464129997096	0.24471593306654	0.254818216921908	0.246141039282603	0.250161927526801	0.240543752247354	0.247386887164978	0.242535466186774	0.24395341030043	0.245102116652929	0.255665294553066	0.235320468005286	0.243679249694638	0.227817251073661	0.243550409366542	0.236571657780411	0.249163921695053	0.248811409056055	0.234842478621768	0.235293698980258	0.237613828690654	0.243542461815604	0.240627192677836	0.242512331219339	0.230674378181984	0.238081698363715	0.252898743117037	0.244317606428689	0.240652096476755	0.245470869174242	0.232333426310784	0.238975607646441	0.244386512995384	0.233192932891822	0.240547924636503	0.236195026106803	0.242019582640699	0.246389574633844	0.249736605073341	0.23453900590623	0.231860813383591	0.252875699656525	0.240851643268422	0.235678452559186	0.241643815800298	0.235424144138953	0.244218518464466	0.246244043607134	0.236214141596114	0.250506199698785	0.247553481754882	0.23985893073743	0.249635240096593	0.232626576883686	0.232455382538263	0.24311814138087	0.251192492058749	0.258122705383244	0.237929242611745	0.244067786889056	0.234828718537236	0.254451155466929	0.249505305399677	0.242153043063517
pop2	pop4	0.221598162374689	0.21887892128475	0.221728360490978	0.219181706048537	0.219946651519777	0.210681604964316	0.233154345652127	0.203954304278788	0.217197283071504	0.2139018747428	0.241864890261265	0.225098883830512	0.209386960420569	0.208550616268192	0.212004818420003	0.230329558278549	0.215811859699875	0.219887993586407	0.216181224352699	0.221258622235217	0.225727401970299	0.230587769300587	0.224388706307379	0.214968230961451	0.208159814532577	0.209392167095227	0.231277213111958	0.213005313022564	0.222444008575406	0.218012173374965	0.217169939473065	0.213329841635709	0.218745197805578	0.218053352299801	0.219326741478077	0.221514757202999	0.225624742623191	0.225913843554052	0.234707474752115	0.213990141404084	0.221023508884504	0.21837162687563	0.225886658978539	0.222643844960898	0.216538984177157	0.217512843833512	0.225685200505272	0.219813723366308	0.221227064306527	0.222605690330559	0.231984629770829	0.212870906070122	0.2288918197493	0.217047524641217	0.218746110076026	0.222687329047311	0.223386762996702	0.227754611530307	0.214021900567988	0.240455963184272	0.236138818231747	0.221228483311169	0.223440695266417	0.211630618593752	0.208174475476245	0.220609625309313	0.213447813637175	0.215232469557157	0.216962897373019	0.222041548867286	0.216905644256036	0.212880848840533	0.228662408757598	0.227267099315681	0.216634192823882	0.214729797994716	0.223396781124628	0.222059241971472	0.226174871155343	0.213302143244068	0.224054464856481	0.215193126636988	0.214095524385643	0.232136321259559	0.219417122234369	0.229095114089451	0.21975940030438	0.220430780501828	0.224611541131133	0.216957637194844	0.206810309687679	0.221280612086988	0.227033755080616	0.216774503947715	0.215511635750217	0.225037326309485	0.217377882718862	0.219219649783549	0.215054398571125	0.220950073030417	0.229667813396104	0.221093923163207	0.213991965593296
pop2	pop5	0.302862625827316	0.299891316615948	0.30348735391593	0.298801362991687	0.300722011409937	0.299394035849248	0.30966029050678	0.305490684714935	0.307353796524154	0.307703904046217	0.300997986808	0.31155903955386	0.295449814841336	0.297865473540382	0.294400489527122	0.302768152246754	0.299138361309621	0.301499256546306	0.291783114248596	0.305938336466069	0.299707744520218	0.309045137910379	0.285076094944087	0.318150688539286	0.294284191052761	0.296670350345464	0.300683897561224	0.297359467040525	0.303149057683857	0.297820840633367	0.291730435110644	0.321216392134252	0.289096249536519	0.300942520687357	0.315705607194887	0.311734476224904	0.299899586326847	0.312942795305709	0.304423115151402	0.296270161058268	0.29978760753892	0.316138586816808	0.304018011913426	0.303952385666995	0.30079964744183	0.304137414373575	0.3019222290952	0.305031844755667	0.312343848560738	0.302893730350545	0.294099783495961	0.290141121658103	0.299381861050067	0.296926308090177	0.305526054215729	0.318173175385121	0.300001853434401	0.29512980275393	0.285919418738487	0.293496082939769	0.306121102873801	0.303604228248863	0.286099457268536	0.298502797564704	0.29847110211779	0.295607156381564	0.305742517899332	0.301185101495133	0.318021767027	0.290067070208051	0.301079563822203	0.292410377951288	0.288538059249923	0.304164299392907	0.314862858028681	0.301379361587441	0.31342311545852	0.310602152041642	0.309618098733083	0.293140214476324	0.320717561608176	0.276735705308562	0.306712043267393	0.302023894884136	0.290578935214261	0.281081049578694	0.300840746018255	0.308006210422821	0.297436888187857	0.301795134344665	0.292726630253374	0.294848303609589	0.304742328185061	0.303611728981913	0.296894536912199	0.308989023029534	0.334641245278141	0.29459208721022	0.308259922694812	0.304506531039776	0.300878263228894	0.296001866448074	0.303416800692287
pop2	pop6	0.220433958161342	0.220367975653977	0.223070570105772	0.221039773917041	0.211947772091446	0.220921999719724	0.22958087347042	0.220719952496944	0.223576998432174	0.208291765341829	0.226697424571088	0.227086321049499	0.227315880525885	0.211104468136164	0.220624160617266	0.233215084856503	0.228778936157144	0.230925008805699	0.217126436894799	0.209497710415393	0.217573098427793	0.222285848300255	0.224855972757504	0.22885504061505	0.218839075489117	0.21900312403771	0.224564948039469	0.223017401898976	0.20737286688239	0.221865571510321	0.228490913704854	0.218859978523512	0.208938508801324	0.224857203978764	0.214563400833707	0.223415186141499	0.223098333139537	0.228997714343325	0.224159424101478	0.223778470795034	0.215151208596544	0.225598830046373	0.217624299198349	0.223850497331575	0.222325212822148	0.216974221376874	0.224625600142936	0.228270511944844	0.213804456946804	0.238940018710053	0.220126058313459	0.220141259179971	0.217840670833381	0.218979627150449	0.216129514703604	0.22569394698684	0.222839411795333	0.223416872482827	0.234150233133343	0.221031818947091	0.206979669394306	0.223932227310745	0.232331847707448	0.224422500602664	0.222599783892743	0.231920727666595	0.217462626394739	0.229950931917799	0.22186683521018	0.209058469064137	0.218861371816607	0.215645014433965	0.219263647913611	0.223129554350195	0.21922537202291	0.223804585609417	0.20404604300684	0.233142832196811	0.214205086706456	0.225152500959129	0.226690452661681	0.228172986157458	0.218387916485534	0.223302879410588	0.224850442620649	0.224284572677759	0.222021868842453	0.214524892461038	0.237625106136977	0.215598256893519	0.218339419638257	0.225317796977837	0.230586096270221	0.222910076718127	0.211938440641806	0.217648008371461	0.2276183490843	0.224599523957287	0.209178671601979	0.228702414191371	0.223202589315833	0.216021798677172	0.220046179553392
pop3	pop1	0.23300112804903	0.232726881607821	0.23506461549114	0.226292807389303	0.230189067171536	0.236224120183057	0.230803682876891	0.237159343617046	0.231598882910145	0.229248253055492	0.233066929770412	0.231044855459442	0.244590193010089	0.229229724372922	0.240171896270584	0.232539846605039	0.22678689916938	0.245598692821239	0.231951212184364	0.234479814118224	0.231591908316364	0.244171845902932	0.230640502345938	0.227104815019604	0.22971890897024	0.243372507681772	0.240895920852565	0.24109781913315	0.234966216338487	0.246043176915632	0.22623466689285	0.239066168869999	0.222546297373479	0.22454454668508	0.233994255382258	0.23865393604993	0.227393500045825	0.235612228130569	0.227690936793945	0.221791366845169	0.233900047747315	0.23572350057853	0.240583377995042	0.22678631982439	0.233656108412127	0.229123485741	0.240241124921921	0.230803826354918	0.231057671369704	0.235742884659853	0.225167852839222	0.231225353052554	0.227218336826523	0.236380725814333	0.234771508544384	0.235554320965421	0.232183691401802	0.221268450252046	0.221246339605274	0.235497357229406	0.22264160488376	0.232925633328239	0.239120524258598	0.234244971427151	0.240126354201178	0.230172590988231	0.230582083485497	0.237818206278805	0.241119728394146	0.234214421474692	0.236671095832363	0.235605156689127	0.233407384953157	0.233399315626782	0.229963627976364	0.24123041318814	0.238640780788052	0.239718610453486	0.236789302116482	0.237005701956523	0.233009784027971	0.231675149470835	0.228925289899117	0.233356219113388	0.235231050981862	0.229330595992634	0.231928743669096	0.235074638357315	0.241326090738851	0.226447585344884	0.238456305969526	0.22443041644398	0.238380099203446	0.235774692490747	0.238591151658543	0.240110176678476	0.245612563400517	0.229806131698342	0.237747078634984	0.245736123391666	0.242963327816827	0.233716187010467	0.23030791498713
pop3	pop2	0.242434276650594	0.241768163426906	0.244641175015309	0.252198677966568	0.256450357765967	0.244610091517251	0.258976351023584	0.236707857126497	0.24156876891993	0.239825906525011	0.251874995753719	0.255714507978123	0.240211340453715	0.250225210421637	0.251981914863818	0.249745484270739	0.251894007410403	0.259547566389687	0.2411172532526	0.237268162767091	0.250422256436191	0.238923727585575	0.246018747568575	0.24353635348723	0.236937040996355	0.231350131072579	0.239454111326923	0.248186169704276	0.234184262743987	0.251365557877165	0.238433633983946	0.233191455408428	0.243450902085343	0.240109179994162	0.237965570043445	0.231195865618354	0.244472421343276	0.251735937775613	0.23935334451582	0.246464129997096	0.24471593306654	0.254818216921908	0.246141039282603	0.250161927526801	0.240543752247354	0.247386887164978	0.242535466186774	0.24395341030043	0.245102116652929	0.255665294553066	0.235320468005286	0.243679249694638	0.227817251073661	0.243550409366542	0.236571657780411	0.249163921695053	0.248811409056055	0.234842478621768	0.235293698980258	0.237613828690654	0.243542461815604	0.240627192677836	0.242512331219339	0.230674378181984	0.238081698363715	0.252898743117037	0.244317606428689	0.240652096476755	0.245470869174242	0.232333426310784	0.238975607646441	0.244386512995384	0.233192932891822	0.240547924636503	0.236195026106803	0.242019582640699	0.246389574633844	0.249736605073341	0.23453900590623	0.231860813383591	0.252875699656525	0.240851643268422	0.235678452559186	0.241643815800298	0.235424144138953	0.244218518464466	0.246244043607134	0.236214141596114	0.250506199698785	0.247553481754882	0.23985893073743	0.249635240096593	0.232626576883686	0.232455382538263	0.24311814138087	0.251192492058749	0.258122705383244	0.237929242611745	0.244067786889056	0.234828718537236	0.254451155466929	0.249505305399677	0.242153043063517
pop3	pop4	0.217404783760624	0.21595165787518	0.218619610431175	0.216452879729997	0.224681759848358	0.21353724383315	0.22148256757009	0.20803219536164	0.220893183428062	0.220233710137213	0.213919117621238	0.211201682540204	0.204610180693838	0.219573210191859	0.214781523204118	0.215872069314384	0.227876856355114	0.22618202114276	0.213175546717674	0.208277276707204	0.223209440857708	0.217816235164661	0.214460348104054	0.217181769144958	0.212061258626974	0.216987867993532	0.206403464231522	0.225772338190587	0.21223865203679	0.226719066593755	0.21553493773734	0.207396455934735	0.216997814572129	0.220973010329643	0.21521412603029	0.221660263050805	0.221837220863639	0.227432962091475	0.218245982129036	0.218461832385852	0.221072264087174	0.231374960547623	0.230114651383265	0.226060081869952	0.214824986521842	0.22027383473819	0.233184026938771	0.222984650341983	0.221866586833021	0.207394647855665	0.212310115867614	0.210848463390315	0.232340953910537	0.222870050742934	0.225183355595436	0.218473519351194	0.217719207819376	0.208240722605386	0.202781216665318	0.225223774259269	0.215905003653552	0.215423703113888	0.207473384902396	0.209720253634797	0.215346208679211	0.213943474297083	0.208302583176375	0.22178098594952	0.216916728201418	0.205345223958768	0.220496204860076	0.213313838834369	0.213712557109827	0.218326408854774	0.20882322034116	0.223870087082242	0.215761174883213	0.21850986469238	0.218590045170981	0.212947506286082	0.22293973034528	0.216123084738639	0.207528163924197	0.225251049509443	0.224239674373418	0.206712452868538	0.212913350023362	0.214445188746367	0.221431873842965	0.214147617205351	0.212425835177846	0.221143371236624	0.221876119799953	0.201381515231997	0.218942867012287	0.219592725749438	0.221119834557707	0.217501213174578	0.221814293189621	0.215644601307001	0.226572383022313	0.218424600439546	0.209353270367915
pop3	pop5	0.307916824942348	0.305686023045811	0.308919733597015	0.31981913235957	0.310867360413943	0.310471538219893	0.310191360963674	0.306238569498872	0.310554948353225	0.303459516563952	0.30499677487366	0.320041975854197	0.296925756337654	0.308280412899834	0.292362513672924	0.297309562144136	0.302407507709476	0.312393144880015	0.301936108807385	0.31023691983917	0.306465234321104	0.314583606185224	0.303099093377972	0.29850833145219	0.29794478705099	0.295392627862664	0.30753234649699	0.314760171725724	0.30992988092575	0.305336563732274	0.293147079515997	0.303421849481139	0.288252766685466	0.314480981226366	0.297369607668877	0.313656510700217	0.316439271115465	0.310366982470328	0.322286619087703	0.307248548220891	0.302772740687809	0.308554289626878	0.302821381057718	0.318543949264119	0.302128115853827	0.299184654797184	0.311996914799418	0.312929311765304	0.300848509577132	0.301095058393084	0.300086410801386	0.291566794792644	0.311934907960079	0.312360221624405	0.315186458424553	0.323672009769061	0.31104177671908	0.308132281941741	0.288120961260625	0.301811257943623	0.315039485834977	0.30585346654281	0.294737231751401	0.301311796813985	0.304213255386942	0.296778346201056	0.314818668917639	0.295939152140004	0.305647019670191	0.299612213505367	0.318728381353756	0.308791789652697	0.308031774476485	0.306285743749781	0.313057154005645	0.316723335795943	0.316455166615887	0.312127459005988	0.310343522834553	0.308960199053032	0.318366350674255	0.313459675757743	0.318565336938531	0.31387665407365	0.313807881336364	0.298263590327519	0.302867754734154	0.301871889599367	0.309614176176418	0.303363815539256	0.299950294313146	0.311646153322522	0.294777097228675	0.300185851455873	0.314726491276017	0.314677461537471	0.322420276643857	0.315488954923269	0.305399044426512	0.326065671778502	0.301613457536148	0.311534276335185	0.300786543144124
pop3	pop6	0.229265676326299	0.229105471240189	0.231705808194129	0.228814252740495	0.232728898678563	0.225036067467997	0.230465343187522	0.234006342889918	0.228900423390959	0.222960706684679	0.224653302138721	0.235855777206076	0.225557952316452	0.232323640913954	0.231927625349851	0.230586552095988	0.236152485276367	0.236701974071673	0.238091785957726	0.24726877996275	0.224914120671814	0.22410776285175	0.229414635905139	0.22378097109502	0.227261011803383	0.226544647437766	0.228573607340639	0.228455150303852	0.228877286337069	0.224204867220551	0.22842425163234	0.232526257190448	0.221072553392557	0.231342639738597	0.229920731338828	0.229085022943682	0.225879459135561	0.228404157255999	0.234661302532036	0.228451797464241	0.234071478532955	0.235780477178428	0.228445319330342	0.230927836938883	0.237026069223904	0.229324632304544	0.241415593326102	0.231391577208841	0.226041932326393	0.244833825522289	0.217151482543507	0.215043244140708	0.223007376175087	0.232693883487102	0.222834595241764	0.22349331170193	0.232780441871808	0.242710647749063	0.233141101666591	0.227983600766362	0.232283115384662	0.233172882610302	0.244601444571404	0.224964180085559	0.231384242950295	0.226028589013766	0.226196891378476	0.223170670448616	0.2281793327621	0.216764027116429	0.237708717806607	0.222494792337742	0.229168459739462	0.224589312347323	0.222709585003392	0.2382130347383	0.233347202924153	0.24481582027794	0.226680850918663	0.224680406978995	0.243288856286655	0.222932959814079	0.226578004481441	0.235285731289064	0.235221629743423	0.231199551267474	0.237250711326896	0.228386317550722	0.237276631769411	0.236428637507476	0.236593944992862	0.224625556179958	0.217329975021584	0.239253521599173	0.224081824373712	0.233407316210592	0.238428009123991	0.22670965447111	0.227504012025464	0.234133567619891	0.233125738320972	0.243022677934414	0.229313012253781
pop4	pop1	0.216167219743449	0.214332706265054	0.217428812280461	0.206421684564462	0.212547833757592	0.22051811236215	0.220025387340674	0.214541101980449	0.214054735130825	0.207708636048545	0.229799343505665	0.208318478444508	0.214251801331388	0.210780726058875	0.219628285908977	0.219404075443616	0.210516449704873	0.220783359683506	0.21685804274697	0.207270553606938	0.224820158235956	0.210495865907224	0.213685752916785	0.222469399329313	0.22141419314423	0.202922312263822	0.226245875560092	0.215329502911912	0.216587047661454	0.223392806058614	0.21695507485173	0.192786790953586	0.211914257431622	0.21335776982914	0.205584984879364	0.21931018799463	0.215401952598948	0.210084978927388	0.218221496680818	0.217906856562822	0.224619910674931	0.213747324848092	0.232756685666823	0.2051367340813	0.22311972554839	0.215323211480528	0.220006111985786	0.209155622705653	0.209418313564227	0.220291508373346	0.217234001057724	0.206714280931812	0.217054153754826	0.210550928448737	0.233808193222303	0.234965404184853	0.214896251795512	0.214395483837579	0.209261002920164	0.217005377193906	0.217519034574101	0.212272136693204	0.216742849164861	0.222773416511511	0.221063122928923	0.20523929289778	0.208485911406685	0.217717220066323	0.214059004592446	0.216650226917259	0.213592086284935	0.208841569650151	0.205171805265521	0.215374762155711	0.215454807020625	0.219573336856767	0.213793718000432	0.215047598933864	0.221653278825619	0.224772953100487	0.201330509845609	0.209523013165745	0.203988967226107	0.210966651018469	0.233034976281233	0.201739159093563	0.21878222835253	0.210629887679446	0.225936986002668	0.211499376467769	0.214599413796786	0.212967936934026	0.223930477211455	0.21728073338177	0.211412095701234	0.230234436649124	0.229066855661611	0.226626516304117	0.217577256506985	0.228609789149502	0.225788729461983	0.208983582231225	0.205992118709637
pop4	pop2	0.221598162374689	0.21887892128475	0.221728360490978	0.219181706048537	0.219946651519777	0.210681604964316	0.233154345652127	0.203954304278788	0.217197283071504	0.2139018747428	0.241864890261265	0.225098883830512	0.209386960420569	0.208550616268192	0.212004818420003	0.230329558278549	0.215811859699875	0.219887993586407	0.216181224352699	0.221258622235217	0.225727401970299	0.230587769300587	0.224388706307379	0.214968230961451	0.208159814532577	0.209392167095227	0.231277213111958	0.213005313022564	0.222444008575406	0.218012173374965	0.217169939473065	0.213329841635709	0.218745197805578	0.218053352299801	0.219326741478077	0.221514757202999	0.225624742623191	0.225913843554052	0.234707474752115	0.213990141404084	0.221023508884504	0.21837162687563	0.225886658978539	0.222643844960898	0.216538984177157	0.217512843833512	0.225685200505272	0.219813723366308	0.221227064306527	0.222605690330559	0.231984629770829	0.212870906070122	0.2288918197493	0.217047524641217	0.218746110076026	0.222687329047311	0.223386762996702	0.227754611530307	0.214021900567988	0.240455963184272	0.236138818231747	0.221228483311169	0.223440695266417	0.211630618593752	0.208174475476245	0.220609625309313	0.213447813637175	0.215232469557157	0.216962897373019	0.222041548867286	0.216905644256036	0.212880848840533	0.228662408757598	0.227267099315681	0.216634192823882	0.214729797994716	0.223396781124628	0.222059241971472	0.226174871155343	0.213302143244068	0.224054464856481	0.215193126636988	0.214095524385643	0.232136321259559	0.219417122234369	0.229095114089451	0.21975940030438	0.220430780501828	0.224611541131133	0.216957637194844	0.206810309687679	0.221280612086988	0.227033755080616	0.216774503947715	0.215511635750217	0.225037326309485	0.217377882718862	0.219219649783549	0.215054398571125	0.220950073030417	0.229667813396104	0.221093923163207	0.213991965593296
pop4	pop3	0.217404783760624	0.21595165787518	0.218619610431175	0.216452879729997	0.224681759848358	0.21353724383315	0.22148256757009	0.20803219536164	0.220893183428062	0.220233710137213	0.213919117621238	0.211201682540204	0.204610180693838	0.219573210191859	0.214781523204118	0.215872069314384	0.227876856355114	0.22618202114276	0.213175546717674	0.208277276707204	0.223209440857708	0.217816235164661	0.214460348104054	0.217181769144958	0.212061258626974	0.216987867993532	0.206403464231522	0.225772338190587	0.21223865203679	0.226719066593755	0.21553493773734	0.207396455934735	0.216997814572129	0.220973010329643	0.21521412603029	0.221660263050805	0.221837220863639	0.227432962091475	0.218245982129036	0.218461832385852	0.221072264087174	0.231374960547623	0.230114651383265	0.226060081869952	0.214824986521842	0.22027383473819	0.233184026938771	0.222984650341983	0.221866586833021	0.207394647855665	0.212310115867614	0.210848463390315	0.232340953910537	0.222870050742934	0.225183355595436	0.218473519351194	0.217719207819376	0.208240722605386	0.202781216665318	0.225223774259269	0.215905003653552	0.215423703113888	0.207473384902396	0.209720253634797	0.215346208679211	0.213943474297083	0.208302583176375	0.22178098594952	0.216916728201418	0.205345223958768	0.220496204860076	0.213313838834369	0.213712557109827	0.218326408854774	0.20882322034116	0.223870087082242	0.215761174883213	0.21850986469238	0.218590045170981	0.212947506286082	0.22293973034528	0.216123084738639	0.207528163924197	0.225251049509443	0.224239674373418	0.206712452868538	0.212913350023362	0.214445188746367	0.221431873842965	0.214147617205351	0.212425835177846	0.221143371236624	0.221876119799953	0.201381515231997	0.218942867012287	0.219592725749438	0.221119834557707	0.217501213174578	0.221814293189621	0.215644601307001	0.226572383022313	0.218424600439546	0.209353270367915
pop4	pop5	0.302394288119191	0.299252252758098	0.302280846202498	0.315478598773172	0.302903093718126	0.301252972852522	0.299697311474507	0.30753646337911	0.296350466375785	0.300310392972242	0.305104963670746	0.310135553833418	0.293658014829111	0.311880774159639	0.291155797992989	0.293940274875477	0.296727814016851	0.308079934403643	0.297968644891974	0.296628121610473	0.293022475074033	0.307089889785253	0.300991453647884	0.300626615423309	0.312834444778814	0.281555160567983	0.298209901840885	0.305005028277981	0.298829326015534	0.295436788033835	0.288563399450547	0.304890995686649	0.296168389778279	0.322694367924633	0.297471863028876	0.301483678565259	0.304771281738283	0.306142955611953	0.29624090482978	0.304145275989259	0.299233247174664	0.300410777094318	0.302963614809761	0.308666670257435	0.308703018409112	0.296000443599362	0.30284304838714	0.303875767434474	0.302659584880563	0.30990154489287	0.300327903901201	0.288623195423892	0.304568611734613	0.301303836955789	0.30889055104346	0.304548865784703	0.296909932586362	0.284059482709385	0.288788819046952	0.300862599757408	0.30690622043969	0.303605734999608	0.292236974611368	0.301357851012209	0.307598375655757	0.290338736967998	0.306573388803847	0.30813576904814	0.297875495491232	0.297201032501681	0.309454782665123	0.29785751033879	0.290251201308787	0.293676815188211	0.305671770550361	0.308402776603427	0.31330820516513	0.299788708981672	0.317428903539631	0.296115380155635	0.309366458075698	0.277726626319843	0.301638628202894	0.30644047803599	0.296769261174562	0.302051390315624	0.297320045177743	0.296139468623886	0.300983150700752	0.30058527657624	0.299832402869891	0.295367742077411	0.298024624492547	0.287263876033833	0.30029357612272	0.308472494088972	0.312745827978113	0.305840792502363	0.301524891024675	0.301630739753228	0.287582468150113	0.293608907802119	0.29253528213999
pop4	pop6	0.23514184856817	0.234324202890686	0.237166581532177	0.234070661094315	0.238348448664549	0.233980379381027	0.232585276932307	0.224821138832692	0.239254609301698	0.222826906675423	0.242265985440025	0.225819617000487	0.225349300162968	0.226844767761514	0.227279360222764	0.233660316894893	0.245968833430926	0.232142441649553	0.22520938274218	0.232673718468266	0.240266709886496	0.225221139418498	0.240489307594374	0.244028856371323	0.245502956855555	0.238960128589648	0.235458637298719	0.245164401884662	0.218952773805369	0.234129057818474	0.241307645051307	0.231136845893062	0.231624829676996	0.232524235980388	0.222911889346787	0.236477850539653	0.243115201820416	0.236354307105618	0.2577150659277	0.2458888380645	0.23108259939238	0.238709556256182	0.240280976585136	0.24795383415612	0.248665958265665	0.223524153715987	0.244269329108601	0.241080141397122	0.223889936425562	0.228104933923593	0.227757340085513	0.234728852330482	0.248328336090993	0.230351168109641	0.23010114427791	0.234990625435087	0.235232058895039	0.243111498892357	0.237099395591087	0.230907739678716	0.234773354968689	0.2322400924692	0.243750049089409	0.229726626347088	0.235335115007005	0.23805237632371	0.231792939272469	0.240129024399666	0.229843137863895	0.234103206443347	0.234348744338103	0.238211457070326	0.238668513394547	0.244307182531758	0.237171225135707	0.244486929617444	0.236167058260942	0.231313360629384	0.244109896228301	0.228530352323402	0.236719034606366	0.223560404119552	0.234181622129446	0.247336059640047	0.240929696965313	0.239888747658899	0.233008432317543	0.236668888777949	0.230947833916863	0.241905043625127	0.229716592727909	0.235027301098558	0.241031386948412	0.238976930613855	0.224410668243882	0.238530309878276	0.229437876708533	0.237720925283021	0.239345800970174	0.236261693397943	0.246618938353418	0.242619076481958	0.232133912767388
pop5	pop1	0.302755473499525	0.301320575196917	0.304449247274105	0.314349221161925	0.302182070748769	0.30906643698305	0.302391860168515	0.293752827237533	0.302675114397015	0.321822244251829	0.31334691712638	0.313305691563698	0.306134859073266	0.29963502497519	0.29484311516898	0.292457233552349	0.302430076307313	0.298654780071429	0.298424146485387	0.296391291133973	0.302081094480417	0.304745055715634	0.303415773413483	0.311588144179327	0.314788707207965	0.291521201821355	0.308630665032937	0.290650222879776	0.311174346536318	0.292897254813821	0.288126311082105	0.303901132377746	0.298757206357271	0.311237409048521	0.310454929646605	0.31367473395832	0.303941376063689	0.292572128049955	0.302301191536017	0.298382328084973	0.313989432606866	0.317580875143965	0.298452053148844	0.302104191338823	0.306483893795818	0.312180681762577	0.292793048203339	0.299532454786611	0.300877196886965	0.30180631157171	0.297137182418233	0.300255223804735	0.298561549612301	0.311964989835082	0.295576655461142	0.310528078163468	0.293101540074475	0.294831450966855	0.289933762616343	0.301837580716904	0.291086889586835	0.292519791499025	0.302168835819811	0.310667434462378	0.30256867297203	0.294086281491268	0.319249833843189	0.306755638342054	0.293415751412964	0.297611016276994	0.304309471425392	0.29838698867876	0.305031293907882	0.304894005501133	0.317213059601789	0.304653455037551	0.311147474685679	0.311169232446147	0.30464479721489	0.301932656067121	0.305046912534657	0.294050594877234	0.313574449493875	0.298900864111865	0.295304313190366	0.298909869559448	0.29514362468495	0.310024191759086	0.312739852271182	0.297702399726248	0.301155555627118	0.296530100364611	0.296877648896144	0.308730684230515	0.300503558948318	0.319256042149969	0.313597277415607	0.309483256486652	0.301674568345499	0.305122470813628	0.302328675967262	0.285584186201825	0.296505170014275
pop5	pop2	0.302862625827316	0.299891316615948	0.30348735391593	0.298801362991687	0.300722011409937	0.299394035849248	0.30966029050678	0.305490684714935	0.307353796524154	0.307703904046217	0.300997986808	0.31155903955386	0.295449814841336	0.297865473540382	0.294400489527122	0.302768152246754	0.299138361309621	0.301499256546306	0.291783114248596	0.305938336466069	0.299707744520218	0.309045137910379	0.285076094944087	0.318150688539286	0.294284191052761	0.296670350345464	0.300683897561224	0.297359467040525	0.303149057683857	0.297820840633367	0.291730435110644	0.321216392134252	0.289096249536519	0.300942520687357	0.315705607194887	0.311734476224904	0.299899586326847	0.312942795305709	0.304423115151402	0.296270161058268	0.29978760753892	0.316138586816808	0.304018011913426	0.303952385666995	0.30079964744183	0.304137414373575	0.3019222290952	0.305031844755667	0.312343848560738	0.302893730350545	0.294099783495961	0.290141121658103	0.299381861050067	0.296926308090177	0.305526054215729	0.318173175385121	0.300001853434401	0.29512980275393	0.285919418738487	0.293496082939769	0.306121102873801	0.303604228248863	0.286099457268536	0.298502797564704	0.29847110211779	0.295607156381564	0.305742517899332	0.301185101495133	0.318021767027	0.290067070208051	0.301079563822203	0.292410377951288	0.288538059249923	0.304164299392907	0.314862858028681	0.301379361587441	0.31342311545852	0.310602152041642	0.309618098733083	0.293140214476324	0.320717561608176	0.276735705308562	0.306712043267393	0.302023894884136	0.290578935214261	0.281081049578694	0.300840746018255	0.308006210422821	0.297436888187857	0.301795134344665	0.292726630253374	0.294848303609589	0.304742328185061	0.303611728981913	0.296894536912199	0.308989023029534	0.334641245278141	0.29459208721022	0.308259922694812	0.304506531039776	0.300878263228894	0.296001866448074	0.303416800692287
pop5	pop3	0.307916824942348	0.305686023045811	0.308919733597015	0.31981913235957	0.310867360413943	0.310471538219893	0.310191360963674	0.306238569498872	0.310554948353225	0.303459516563952	0.30499677487366	0.320041975854197	0.296925756337654	0.308280412899834	0.292362513672924	0.297309562144136	0.302407507709476	0.312393144880015	0.301936108807385	0.31023691983917	0.306465234321104	0.314583606185224	0.303099093377972	0.29850833145219	0.29794478705099	0.295392627862664	0.30753234649699	0.314760171725724	0.30992988092575	0.305336563732274	0.293147079515997	0.303421849481139	0.288252766685466	0.314480981226366	0.297369607668877	0.313656510700217	0.316439271115465	0.310366982470328	0.322286619087703	0.307248548220891	0.302772740687809	0.308554289626878	0.302821381057718	0.318543949264119	0.302128115853827	0.299184654797184	0.311996914799418	0.312929311765304	0.300848509577132	0.301095058393084	0.300086410801386	0.291566794792644	0.311934907960079	0.312360221624405	0.315186458424553	0.323672009769061	0.31104177671908	0.308132281941741	0.288120961260625	0.301811257943623	0.315039485834977	0.30585346654281	0.294737231751401	0.301311796813985	0.304213255386942	0.296778346201056	0.314818668917639	0.295939152140004	0.305647019670191	0.299612213505367	0.318728381353756	0.308791789652697	0.308031774476485	0.306285743749781	0.313057154005645	0.316723335795943	0.316455166615887	0.312127459005988	0.310343522834553	0.308960199053032	0.318366350674255	0.313459675757743	0.318565336938531	0.31387665407365	0.313807881336364	0.298263590327519	0.302867754734154	0.301871889599367	0.309614176176418	0.303363815539256	0.299950294313146	0.311646153322522	0.294777097228675	0.300185851455873	0.314726491276017	0.314677461537471	0.322420276643857	0.315488954923269	0.305399044426512	0.326065671778502	0.301613457536148	0.311534276335185	0.300786543144124
pop5	pop4	0.302394288119191	0.299252252758098	0.302280846202498	0.315478598773172	0.302903093718126	0.301252972852522	0.299697311474507	0.30753646337911	0.296350466375785	0.300310392972242	0.305104963670746	0.310135553833418	0.293658014829111	0.311880774159639	0.291155797992989	0.293940274875477	0.296727814016851	0.308079934403643	0.297968644891974	0.296628121610473	0.293022475074033	0.307089889785253	0.300991453647884	0.300626615423309	0.312834444778814	0.281555160567983	0.298209901840885	0.305005028277981	0.298829326015534	0.295436788033835	0.288563399450547	0.304890995686649	0.296168389778279	0.322694367924633	0.297471863028876	0.301483678565259	0.304771281738283	0.306142955611953	0.29624090482978	0.304145275989259	0.299233247174664	0.300410777094318	0.302963614809761	0.308666670257435	0.308703018409112	0.296000443599362	0.30284304838714	0.303875767434474	0.302659584880563	0.30990154489287	0.300327903901201	0.288623195423892	0.304568611734613	0.301303836955789	0.30889055104346	0.304548865784703	0.296909932586362	0.284059482709385	0.288788819046952	0.300862599757408	0.30690622043969	0.303605734999608	0.292236974611368	0.301357851012209	0.307598375655757	0.290338736967998	0.306573388803847	0.30813576904814	0.297875495491232	0.297201032501681	0.309454782665123	0.29785751033879	0.290251201308787	0.293676815188211	0.305671770550361	0.308402776603427	0.31330820516513	0.299788708981672	0.317428903539631	0.296115380155635	0.309366458075698	0.277726626319843	0.301638628202894	0.30644047803599	0.296769261174562	0.302051390315624	0.297320045177743	0.296139468623886	0.300983150700752	0.30058527657624	0.299832402869891	0.295367742077411	0.298024624492547	0.287263876033833	0.30029357612272	0.308472494088972	0.312745827978113	0.305840792502363	0.301524891024675	0.301630739753228	0.287582468150113	0.293608907802119	0.29253528213999
pop5	pop6	0.299012486283792	0.297816325824185	0.301205726837281	0.297866563157711	0.301671292621366	0.304447571758953	0.306627611402831	0.291562233056361	0.305693391860834	0.310683294840806	0.305408617234553	0.320550910467982	0.299492696755697	0.282584062976475	0.28112594641584	0.292490018168184	0.29091191867279	0.29939947981165	0.296012403260594	0.303429873292989	0.302627625797373	0.295811395937793	0.311005688180287	0.295415831292681	0.293003766687292	0.287253993290471	0.311485270193963	0.294420096103464	0.307880994152714	0.288718206431212	0.291610111075185	0.303773118586857	0.294037346078934	0.309961483812758	0.300445276982217	0.29714587341903	0.30778563866904	0.302582721827473	0.300374992842411	0.293560115490749	0.308007153842082	0.30224505317789	0.309325816075053	0.298365961216625	0.301524949070714	0.287448126637151	0.294722248433336	0.313267445721073	0.299482824576226	0.296986601108504	0.294662894319353	0.296581746630995	0.298429503166549	0.304395995869205	0.298834220269308	0.308281480751299	0.290265080222808	0.304571322131179	0.291387910154857	0.301688677391998	0.297097781672376	0.287751695299313	0.298770299644764	0.307995604181919	0.293096212300941	0.296492398849564	0.297790303496324	0.289177403326484	0.29929092738462	0.294197596525358	0.317799826132233	0.2981576582325	0.289537326072248	0.301598844754437	0.306870203775158	0.301921484632813	0.303784519629044	0.300315487843011	0.314594923644725	0.280737656894103	0.314982929881712	0.285137149668804	0.314421400685169	0.297247731107222	0.292081834922695	0.295372487781801	0.290716919974884	0.310236721272853	0.297849493119338	0.299164791601124	0.290902973417007	0.303849310929234	0.276801805576951	0.290003320802379	0.297210658584569	0.307241611207452	0.313704446643178	0.308401125868042	0.301650582900304	0.308032351021482	0.3080011506555	0.289866461816039	0.301914775969925
pop6	pop1	0.241999184621391	0.241084575707177	0.243561372655075	0.236753515450122	0.244770804713358	0.246885902793778	0.244958683815344	0.236986116184986	0.240691467179206	0.255633936059934	0.250971089476835	0.25064247137109	0.230839866465092	0.237739427320365	0.241257803955503	0.242259212205792	0.251242296842025	0.239551351459707	0.242859242252774	0.240975350686709	0.239318417532129	0.237174400986799	0.244550400769443	0.239551160662054	0.256656309085366	0.246567383983109	0.244212617261168	0.231410608240263	0.235735404771894	0.240680872490691	0.240308044924109	0.240685912968411	0.240991324718596	0.256325931611318	0.232748996557497	0.232925169241052	0.247916810313978	0.244195773756926	0.243732927623267	0.238694224758818	0.234611211610077	0.245092163339835	0.239056330531205	0.230347750078521	0.24343078738886	0.240220243469166	0.256564184510518	0.254102984768542	0.237744637514999	0.240857071042607	0.249902333262349	0.23471740620194	0.243205328530972	0.233238377323119	0.243708468062049	0.242304096213914	0.231633468973876	0.246354647986597	0.239787794022644	0.236456332259807	0.244949612836887	0.236222763961654	0.247056353057273	0.240399204490413	0.240788800632362	0.246251074184088	0.242089534210965	0.239003817734831	0.242287538486621	0.236588633194807	0.24504969886336	0.2311849783785	0.244985503204734	0.239055545684533	0.235378804182645	0.241151823273314	0.234991415292932	0.253993182400108	0.231372458946144	0.233104874503785	0.248649083283181	0.250479537770892	0.233429761992758	0.248006455008034	0.242839013193118	0.254005808810895	0.242431948178991	0.243702588081297	0.247200420067102	0.239782160843235	0.240869073445803	0.248883153824776	0.242864294191922	0.244573661386766	0.243856329471991	0.241243511453531	0.24296316924478	0.251207086657606	0.243383419631746	0.251146654864651	0.244049622454824	0.240593806914529	0.247494392239114
pop6	pop2	0.220433958161342	0.220367975653977	0.223070570105772	0.221039773917041	0.211947772091446	0.220921999719724	0.22958087347042	0.220719952496944	0.223576998432174	0.208291765341829	0.226697424571088	0.227086321049499	0.227315880525885	0.211104468136164	0.220624160617266	0.233215084856503	0.228778936157144	0.230925008805699	0.217126436894799	0.209497710415393	0.217573098427793	0.222285848300255	0.224855972757504	0.22885504061505	0.218839075489117	0.21900312403771	0.224564948039469	0.223017401898976	0.20737286688239	0.221865571510321	0.228490913704854	0.218859978523512	0.208938508801324	0.224857203978764	0.214563400833707	0.223415186141499	0.223098333139537	0.228997714343325	0.224159424101478	0.223778470795034	0.215151208596544	0.225598830046373	0.217624299198349	0.223850497331575	0.222325212822148	0.216974221376874	0.224625600142936	0.228270511944844	0.213804456946804	0.238940018710053	0.220126058313459	0.220141259179971	0.217840670833381	0.218979627150449	0.216129514703604	0.22569394698684	0.222839411795333	0.223416872482827	0.234150233133343	0.221031818947091	0.206979669394306	0.223932227310745	0.232331847707448	0.224422500602664	0.222599783892743	0.231920727666595	0.217462626394739	0.229950931917799	0.22186683521018	0.209058469064137	0.218861371816607	0.215645014433965	0.219263647913611	0.223129554350195	0.21922537202291	0.223804585609417	0.20404604300684	0.233142832196811	0.214205086706456	0.225152500959129	0.226690452661681	0.228172986157458	0.218387916485534	0.223302879410588	0.224850442620649	0.224284572677759	0.222021868842453	0.214524892461038	0.237625106136977	0.215598256893519	0.218339419638257	0.225317796977837	0.230586096270221	0.222910076718127	0.211938440641806	0.217648008371461	0.2276183490843	0.224599523957287	0.209178671601979	0.228702414191371	0.223202589315833	0.216021798677172	0.220046179553392
pop6	pop3	0.229265676326299	0.229105471240189	0.231705808194129	0.228814252740495	0.232728898678563	0.225036067467997	0.230465343187522	0.234006342889918	0.228900423390959	0.222960706684679	0.224653302138721	0.235855777206076	0.225557952316452	0.232323640913954	0.231927625349851	0.230586552095988	0.236152485276367	0.236701974071673	0.238091785957726	0.24726877996275	0.224914120671814	0.22410776285175	0.229414635905139	0.22378097109502	0.227261011803383	0.226544647437766	0.228573607340639	0.228455150303852	0.228877286337069	0.224204867220551	0.22842425163234	0.232526257190448	0.221072553392557	0.231342639738597	0.229920731338828	0.229085022943682	0.225879459135561	0.228404157255999	0.234661302532036	0.228451797464241	0.234071478532955	0.235780477178428	0.228445319330342	0.230927836938883	0.237026069223904	0.229324632304544	0.241415593326102	0.231391577208841	0.226041932326393	0.244833825522289	0.217151482543507	0.215043244140708	0.223007376175087	0.232693883487102	0.222834595241764	0.22349331170193	0.232780441871808	0.242710647749063	0.233141101666591	0.227983600766362	0.232283115384662	0.233172882610302	0.244601444571404	0.224964180085559	0.231384242950295	0.226028589013766	0.226196891378476	0.223170670448616	0.2281793327621	0.216764027116429	0.237708717806607	0.222494792337742	0.229168459739462	0.224589312347323	0.222709585003392	0.2382130347383	0.233347202924153	0.24481582027794	0.226680850918663	0.224680406978995	0.243288856286655	0.222932959814079	0.226578004481441	0.235285731289064	0.235221629743423	0.231199551267474	0.237250711326896	0.228386317550722	0.237276631769411	0.236428637507476	0.236593944992862	0.224625556179958	0.217329975021584	0.239253521599173	0.224081824373712	0.233407316210592	0.238428009123991	0.22670965447111	0.227504012025464	0.234133567619891	0.233125738320972	0.243022677934414	0.229313012253781
pop6	pop4	0.23514184856817	0.234324202890686	0.237166581532177	0.234070661094315	0.238348448664549	0.233980379381027	0.232585276932307	0.224821138832692	0.239254609301698	0.222826906675423	0.242265985440025	0.225819617000487	0.225349300162968	0.226844767761514	0.227279360222764	0.233660316894893	0.245968833430926	0.232142441649553	0.22520938274218	0.232673718468266	0.240266709886496	0.225221139418498	0.240489307594374	0.244028856371323	0.245502956855555	0.238960128589648	0.235458637298719	0.245164401884662	0.218952773805369	0.234129057818474	0.241307645051307	0.231136845893062	0.231624829676996	0.232524235980388	0.222911889346787	0.236477850539653	0.243115201820416	0.236354307105618	0.2577150659277	0.2458888380645	0.23108259939238	0.238709556256182	0.240280976585136	0.24795383415612	0.248665958265665	0.223524153715987	0.244269329108601	0.241080141397122	0.223889936425562	0.228104933923593	0.227757340085513	0.234728852330482	0.248328336090993	0.230351168109641	0.23010114427791	0.234990625435087	0.235232058895039	0.243111498892357	0.237099395591087	0.230907739678716	0.234773354968689	0.2322400924692	0.243750049089409	0.229726626347088	0.235335115007005	0.23805237632371	0.231792939272469	0.240129024399666	0.229843137863895	0.234103206443347	0.234348744338103	0.238211457070326	0.238668513394547	0.244307182531758	0.237171225135707	0.244486929617444	0.236167058260942	0.231313360629384	0.244109896228301	0.228530352323402	0.236719034606366	0.223560404119552	0.234181622129446	0.247336059640047	0.240929696965313	0.239888747658899	0.233008432317543	0.236668888777949	0.230947833916863	0.241905043625127	0.229716592727909	0.235027301098558	0.241031386948412	0.238976930613855	0.224410668243882	0.238530309878276	0.229437876708533	0.237720925283021	0.239345800970174	0.236261693397943	0.246618938353418	0.242619076481958	0.232133912767388
pop6	pop5	0.299012486283792	0.297816325824185	0.301205726837281	0.297866563157711	0.301671292621366	0.304447571758953	0.306627611402831	0.291562233056361	0.305693391860834	0.310683294840806	0.305408617234553	0.320550910467982	0.299492696755697	0.282584062976475	0.28112594641584	0.292490018168184	0.29091191867279	0.29939947981165	0.296012403260594	0.303429873292989	0.302627625797373	0.295811395937793	0.311005688180287	0.295415831292681	0.293003766687292	0.287253993290471	0.311485270193963	0.294420096103464	0.307880994152714	0.288718206431212	0.291610111075185	0.303773118586857	0.294037346078934	0.309961483812758	0.300445276982217	0.29714587341903	0.30778563866904	0.302582721827473	0.300374992842411	0.293560115490749	0.308007153842082	0.30224505317789	0.309325816075053	0.298365961216625	0.301524949070714	0.287448126637151	0.294722248433336	0.313267445721073	0.299482824576226	0.296986601108504	0.294662894319353	0.296581746630995	0.298429503166549	0.304395995869205	0.298834220269308	0.308281480751299	0.290265080222808	0.304571322131179	0.291387910154857	0.301688677391998	0.297097781672376	0.287751695299313	0.298770299644764	0.307995604181919	0.293096212300941	0.296492398849564	0.297790303496324	0.289177403326484	0.29929092738462	0.294197596525358	0.317799826132233	0.2981576582325	0.289537326072248	0.301598844754437	0.306870203775158	0.301921484632813	0.303784519629044	0.300315487843011	0.314594923644725	0.280737656894103	0.314982929881712	0.285137149668804	0.314421400685169	0.297247731107222	0.292081834922695	0.295372487781801	0.290716919974884	0.310236721272853	0.297849493119338	0.299164791601124	0.290902973417007	0.303849310929234	0.276801805576951	0.290003320802379	0.297210658584569	0.307241611207452	0.313704446643178	0.308401125868042	0.301650582900304	0.308032351021482	0.3080011506555	0.289866461816039	0.301914775969925
