IND	POP
pop1_1	pop1
pop1_2	pop1
pop1_3	pop1
pop1_4	pop1
pop1_5	pop1
pop1_6	pop1
pop1_7	pop1
pop1_8	pop1
pop1_9	pop1
pop1_10	pop1
pop1_11	pop1
pop1_12	pop1
pop1_13	pop1
pop1_14	pop1
pop1_15	pop1
pop1_16	pop1
pop1_17	pop1
pop1_18	pop1
pop1_19	pop1
pop1_20	pop1
pop1_21	pop1
pop1_22	pop1
pop1_23	pop1
pop1_24	pop1
pop1_25	pop1
pop1_26	pop1
pop1_27	pop1
pop1_28	pop1
pop1_29	pop1
pop1_30	pop1
pop2_1	pop2
pop2_2	pop2
pop2_3	pop2
pop2_4	pop2
pop2_5	pop2
pop2_6	pop2
pop2_7	pop2
pop2_8	pop2
pop2_9	pop2
pop2_10	pop2
pop2_11	pop2
pop2_12	pop2
pop2_13	pop2
pop2_14	pop2
pop2_15	pop2
pop2_16	pop2
pop2_17	pop2
pop2_18	pop2
pop2_19	pop2
pop2_20	pop2
pop2_21	pop2
pop2_22	pop2
pop2_23	pop2
pop2_24	pop2
pop2_25	pop2
pop2_26	pop2
pop2_27	pop2
pop2_28	pop2
pop2_29	pop2
pop2_30	pop2
pop3_1	pop3
pop3_2	pop3
pop3_3	pop3
pop3_4	pop3
pop3_5	pop3
pop3_6	pop3
pop3_7	pop3
pop3_8	pop3
pop3_9	pop3
pop3_10	pop3
pop3_11	pop3
pop3_12	pop3
pop3_13	pop3
pop3_14	pop3
pop3_15	pop3
pop3_16	pop3
pop3_17	pop3
pop3_18	pop3
pop3_19	pop3
pop3_20	pop3
pop3_21	pop3
pop3_22	pop3
pop3_23	pop3
pop3_24	pop3
pop3_25	pop3
pop3_26	pop3
pop3_27	pop3
pop3_28	pop3
pop3_29	pop3
pop3_30	pop3
pop4_1	pop4
pop4_2	pop4
pop4_3	pop4
pop4_4	pop4
pop4_5	pop4
pop4_6	pop4
pop4_7	pop4
pop4_8	pop4
pop4_9	pop4
pop4_10	pop4
pop4_11	pop4
pop4_12	pop4
pop4_13	pop4
pop4_14	pop4
pop4_15	pop4
pop4_16	pop4
pop4_17	pop4
pop4_18	pop4
pop4_19	pop4
pop4_20	pop4
pop4_21	pop4
pop4_22	pop4
pop4_23	pop4
pop4_24	pop4
pop4_25	pop4
pop4_26	pop4
pop4_27	pop4
pop4_28	pop4
pop4_29	pop4
pop4_30	pop4
pop5_1	pop5
pop5_2	pop5
pop5_3	pop5
pop5_4	pop5
pop5_5	pop5
pop5_6	pop5
pop5_7	pop5
pop5_8	pop5
pop5_9	pop5
pop5_10	pop5
pop5_11	pop5
pop5_12	pop5
pop5_13	pop5
pop5_14	pop5
pop5_15	pop5
pop5_16	pop5
pop5_17	pop5
pop5_18	pop5
pop5_19	pop5
pop5_20	pop5
pop5_21	pop5
pop5_22	pop5
pop5_23	pop5
pop5_24	pop5
pop5_25	pop5
pop5_26	pop5
pop5_27	pop5
pop5_28	pop5
pop5_29	pop5
pop5_30	pop5
pop6_1	pop6
pop6_2	pop6
pop6_3	pop6
pop6_4	pop6
pop6_5	pop6
pop6_6	pop6
pop6_7	pop6
pop6_8	pop6
pop6_9	pop6
pop6_10	pop6
pop6_11	pop6
pop6_12	pop6
pop6_13	pop6
pop6_14	pop6
pop6_15	pop6
pop6_16	pop6
pop6_17	pop6
pop6_18	pop6
pop6_19	pop6
pop6_20	pop6
pop6_21	pop6
pop6_22	pop6
pop6_23	pop6
pop6_24	pop6
pop6_25	pop6
pop6_26	pop6
pop6_27	pop6
pop6_28	pop6
pop6_29	pop6
pop6_30	pop6
